<?xml version="1.0" encoding="utf-8"?>
<!DOCTYPE svg PUBLIC "-//W3C//DTD SVG 1.1//EN" "http://www.w3.org/Graphics/SVG/1.1/DTD/svg11.dtd">
<svg version="1.1" id="traverse_icon_event"
	 xmlns="http://www.w3.org/2000/svg" xmlns:xlink="http://www.w3.org/1999/xlink" x="0px" y="0px" width="32px" height="28px"
	 viewBox="0 0 32 28" enable-background="new 0 0 32 28" xml:space="preserve">
  <g>
  <path d="M10.059 6.408C8.961 6.408 8.067 7.302 8.067 8.4 8.067 9.499 8.961 10.393 10.059 10.393 11.158 10.393 12.052 9.499 12.052 8.4 12.052 7.302 11.158 6.408 10.059 6.408M10.059 11.06C8.593 11.06 7.4 9.866 7.4 8.4 7.4 6.934 8.593 5.741 10.059 5.741 11.525 5.741 12.719 6.934 12.719 8.4 12.719 9.866 11.525 11.06 10.059 11.06M11.223 16.281C11.093 16.281 10.962 16.37 10.853 16.533L7.495 21.57C7.379 21.745 7.369 21.866 7.395 21.916 7.421 21.965 7.525 22.022 7.73 22.022L24.012 22.022C24.189 22.022 24.327 21.975 24.37 21.898 24.413 21.822 24.383 21.679 24.291 21.526L18.515 11.899C18.321 11.576 18.078 11.579 17.885 11.899L13.441 19.306 11.592 16.533C11.483 16.37 11.352 16.281 11.223 16.281M24.012 22.689L7.73 22.689C7.3 22.689 6.963 22.522 6.808 22.23 6.651 21.938 6.699 21.562 6.94 21.2L10.298 16.164C10.764 15.466 11.681 15.466 12.147 16.164L13.411 18.06 17.313 11.557C17.759 10.815 18.642 10.815 19.087 11.557L24.863 21.183C25.085 21.552 25.116 21.933 24.95 22.227 24.784 22.52 24.442 22.689 24.012 22.689" stroke="#00000000" fill="#FFFFFF" stroke-width="1"/>
  <path d="M18.801 11.728C18.465 11.168 17.931 11.174 17.599 11.728L13.425 18.683 11.869 16.348C11.513 15.814 10.933 15.812 10.575 16.348L7.217 21.385C6.861 21.919 7.089 22.356 7.73 22.356L13.551 22.356 24.011 22.356C24.656 22.356 24.908 21.907 24.577 21.354L18.801 11.728Z" stroke="#00000000" fill="#FFFFFF" stroke-width="1"/>
  <path d="M10.059 10.726C11.344 10.726 12.385 9.685 12.385 8.4 12.385 7.115 11.344 6.075 10.059 6.075 8.775 6.075 7.733 7.115 7.733 8.4 7.733 9.685 8.775 10.726 10.059 10.726" stroke="#00000000" fill="#FFFFFF" stroke-width="1"/>
  <path d="M5.081 2.178C3.113 2.178 1.511 3.923 1.511 6.068L1.511 22.361C1.511 24.506 3.113 26.251 5.081 26.251L26.667 26.251C28.635 26.251 30.236 24.506 30.236 22.361L30.236 6.068C30.236 3.923 28.635 2.178 26.667 2.178L5.081 2.178ZM26.667 27.763L5.081 27.763C2.279 27.763 0 25.34 0 22.361L0 6.068C0 3.09 2.279 0.666 5.081 0.666L26.667 0.666C29.469 0.666 31.748 3.09 31.748 6.068L31.748 22.361C31.748 25.34 29.469 27.763 26.667 27.763L26.667 27.763Z" color="#00000000" fill="#FFFFFF" stroke-width="1"/>
  </g>
</svg>
