<?xml version="1.0" encoding="utf-8"?>
<!DOCTYPE svg PUBLIC "-//W3C//DTD SVG 1.1//EN" "http://www.w3.org/Graphics/SVG/1.1/DTD/svg11.dtd">
<svg version="1.1" id="traverse_icon_event"
	 xmlns="http://www.w3.org/2000/svg" xmlns:xlink="http://www.w3.org/1999/xlink" x="0px" y="0px" width="26px" height="20px"
	 viewBox="0 0 26 20" enable-background="new 0 0 26 20" xml:space="preserve">
  <g>
    <path d="M0 15.876L0 13.29 7.026 13.29 7.026 15.876 0 15.876ZM0 8.85L0 6.265 10.502 6.265 10.502 8.85 0 8.85ZM0 2.586L0 0 23.347 0 23.347 2.586 0 2.586ZM16.662 10.455L18.402 5.102 20.141 10.455 25.77 10.455 21.216 13.764 22.956 19.118 18.402 15.809 13.848 19.118 15.587 13.764 11.033 10.455 16.662 10.455Z" stroke="#00000000" fill="#FFFFFF" stroke-width="1"/>
  </g>
</svg>
